Muxes e Decoders/Mux4x1/simulation/qsim/Mux4x1.msim.vcd
$comment
	File created using the following command:
		vcd file Mux4x1.msim.vcd -direction
$end
$date
	Wed May 13 18:21:56 2026
$end
$version
	ModelSim Version 10.1d
$end
$timescale
	1ps
$end
$scope module Mux4x1_vlg_vec_tst $end
$var reg 1 ! in0 $end
$var reg 1 " in1 $end
$var reg 1 # in2 $end
$var reg 1 $ in3 $end
$var reg 1 % select0 $end
$var reg 1 & select1 $end
$var wire 1 ' display $end
$var wire 1 ( sampler $end
$scope module i1 $end
$var wire 1 ) gnd $end
$var wire 1 * vcc $end
$var wire 1 + unknown $end
$var tri1 1 , devclrn $end
$var tri1 1 - devpor $end
$var tri1 1 . devoe $end
$var wire 1 / select1~combout $end
$var wire 1 0 in3~combout $end
$var wire 1 1 in2~combout $end
$var wire 1 2 in0~combout $end
$var wire 1 3 select0~combout $end
$var wire 1 4 u3|d~0_combout $end
$var wire 1 5 in1~combout $end
$var wire 1 6 u3|d~1_combout $end
$upscope $end
$upscope $end
$enddefinitions $end
#0
$dumpvars
0!
0"
0#
0$
0%
0&
0'
x(
0)
1*
x+
1,
1-
1.
0/
00
01
02
03
04
05
06
$end
#5000
1!
12
0(
14
16
1'
#10000
1"
0!
15
02
1(
04
06
0'
#15000
1!
12
0(
14
16
1'
#20000
1#
0"
0!
11
05
02
1(
04
06
0'
#25000
1!
12
0(
14
16
1'
#30000
1"
0!
15
02
1(
04
06
0'
#35000
1!
12
0(
14
16
1'
#40000
1$
0#
0"
0!
10
01
05
02
1(
04
06
0'
#45000
1!
12
0(
14
16
1'
#50000
1"
0!
15
02
1(
04
06
0'
#55000
1!
12
0(
14
16
1'
#60000
1#
0"
0!
11
05
02
1(
04
06
0'
#65000
1!
12
0(
14
16
1'
#70000
1"
0!
15
02
1(
04
06
0'
#75000
1!
12
0(
14
16
1'
#80000
1%
0$
0#
0"
0!
13
00
01
05
02
1(
06
04
0'
#85000
1!
12
0(
#90000
1"
0!
15
02
1(
16
1'
#95000
1!
12
0(
#100000
1#
0"
0!
11
05
02
1(
06
0'
#105000
1!
12
0(
#110000
1"
0!
15
02
1(
16
1'
#115000
1!
12
0(
#120000
1$
0#
0"
0!
10
01
05
02
1(
06
0'
#125000
1!
12
0(
#130000
1"
0!
15
02
1(
16
1'
#135000
1!
12
0(
#140000
1#
0"
0!
11
05
02
1(
06
0'
#145000
1!
12
0(
#150000
1"
0!
15
02
1(
16
1'
#155000
1!
12
0(
#160000
1&
0%
0$
0#
0"
0!
1/
03
00
01
05
02
1(
06
0'
#165000
1!
12
0(
#170000
1"
0!
15
02
1(
#175000
1!
12
0(
#180000
1#
0"
0!
11
05
02
1(
14
16
1'
#185000
1!
12
0(
#190000
1"
0!
15
02
1(
#195000
1!
12
0(
#200000
1$
0#
0"
0!
10
01
05
02
1(
04
06
0'
#205000
1!
12
0(
#210000
1"
0!
15
02
1(
#215000
1!
12
0(
#220000
1#
0"
0!
11
05
02
1(
14
16
1'
#225000
1!
12
0(
#230000
1"
0!
15
02
1(
#235000
1!
12
0(
#240000
1%
0$
0#
0"
0!
13
00
01
05
02
1(
06
0'
#245000
1!
12
0(
#250000
1"
0!
15
02
1(
#255000
1!
12
0(
#260000
1#
0"
0!
11
05
02
1(
#265000
1!
12
0(
#270000
1"
0!
15
02
1(
#275000
1!
12
0(
#280000
1$
0#
0"
0!
10
01
05
02
1(
16
1'
#285000
1!
12
0(
#290000
1"
0!
15
02
1(
#295000
1!
12
0(
#300000
1#
0"
0!
11
05
02
1(
#305000
1!
12
0(
#310000
1"
0!
15
02
1(
#315000
1!
12
0(
#320000
0&
0%
0$
0#
0"
0!
0/
03
00
01
05
02
1(
04
06
0'
#325000
1!
12
0(
14
16
1'
#330000
1"
0!
15
02
1(
04
06
0'
#335000
1!
12
0(
14
16
1'
#340000
1#
0"
0!
11
05
02
1(
04
06
0'
#345000
1!
12
0(
14
16
1'
#350000
1"
0!
15
02
1(
04
06
0'
#355000
1!
12
0(
14
16
1'
#360000
1$
0#
0"
0!
10
01
05
02
1(
04
06
0'
#365000
1!
12
0(
14
16
1'
#370000
1"
0!
15
02
1(
04
06
0'
#375000
1!
12
0(
14
16
1'
#380000
1#
0"
0!
11
05
02
1(
04
06
0'
#385000
1!
12
0(
14
16
1'
#390000
1"
0!
15
02
1(
04
06
0'
#395000
1!
12
0(
14
16
1'
#400000
1%
0$
0#
0"
0!
13
00
01
05
02
1(
06
04
0'
#405000
1!
12
0(
#410000
1"
0!
15
02
1(
16
1'
#415000
1!
12
0(
#420000
1#
0"
0!
11
05
02
1(
06
0'
#425000
1!
12
0(
#430000
1"
0!
15
02
1(
16
1'
#435000
1!
12
0(
#440000
1$
0#
0"
0!
10
01
05
02
1(
06
0'
#445000
1!
12
0(
#450000
1"
0!
15
02
1(
16
1'
#455000
1!
12
0(
#460000
1#
0"
0!
11
05
02
1(
06
0'
#465000
1!
12
0(
#470000
1"
0!
15
02
1(
16
1'
#475000
1!
12
0(
#480000
1&
0%
0$
0#
0"
0!
1/
03
00
01
05
02
1(
06
0'
#485000
1!
12
0(
#490000
1"
0!
15
02
1(
#495000
1!
12
0(
#500000
1#
0"
0!
11
05
02
1(
14
16
1'
#505000
1!
12
0(
#510000
1"
0!
15
02
1(
#515000
1!
12
0(
#520000
1$
0#
0"
0!
10
01
05
02
1(
04
06
0'
#525000
1!
12
0(
#530000
1"
0!
15
02
1(
#535000
1!
12
0(
#540000
1#
0"
0!
11
05
02
1(
14
16
1'
#545000
1!
12
0(
#550000
1"
0!
15
02
1(
#555000
1!
12
0(
#560000
1%
0$
0#
0"
0!
13
00
01
05
02
1(
06
0'
#565000
1!
12
0(
#570000
1"
0!
15
02
1(
#575000
1!
12
0(
#580000
1#
0"
0!
11
05
02
1(
#585000
1!
12
0(
#590000
1"
0!
15
02
1(
#595000
1!
12
0(
#600000
1$
0#
0"
0!
10
01
05
02
1(
16
1'
#605000
1!
12
0(
#610000
1"
0!
15
02
1(
#615000
1!
12
0(
#620000
1#
0"
0!
11
05
02
1(
#625000
1!
12
0(
#630000
1"
0!
15
02
1(
#635000
1!
12
0(
#640000
0&
0%
0$
0#
0"
0!
0/
03
00
01
05
02
1(
04
06
0'
#645000
1!
12
0(
14
16
1'
#650000
1"
0!
15
02
1(
04
06
0'
#655000
1!
12
0(
14
16
1'
#660000
1#
0"
0!
11
05
02
1(
04
06
0'
#665000
1!
12
0(
14
16
1'
#670000
1"
0!
15
02
1(
04
06
0'
#675000
1!
12
0(
14
16
1'
#680000
1$
0#
0"
0!
10
01
05
02
1(
04
06
0'
#685000
1!
12
0(
14
16
1'
#690000
1"
0!
15
02
1(
04
06
0'
#695000
1!
12
0(
14
16
1'
#700000
1#
0"
0!
11
05
02
1(
04
06
0'
#705000
1!
12
0(
14
16
1'
#710000
1"
0!
15
02
1(
04
06
0'
#715000
1!
12
0(
14
16
1'
#720000
1%
0$
0#
0"
0!
13
00
01
05
02
1(
06
04
0'
#725000
1!
12
0(
#730000
1"
0!
15
02
1(
16
1'
#735000
1!
12
0(
#740000
1#
0"
0!
11
05
02
1(
06
0'
#745000
1!
12
0(
#750000
1"
0!
15
02
1(
16
1'
#755000
1!
12
0(
#760000
1$
0#
0"
0!
10
01
05
02
1(
06
0'
#765000
1!
12
0(
#770000
1"
0!
15
02
1(
16
1'
#775000
1!
12
0(
#780000
1#
0"
0!
11
05
02
1(
06
0'
#785000
1!
12
0(
#790000
1"
0!
15
02
1(
16
1'
#795000
1!
12
0(
#800000
1&
0%
0$
0#
0"
0!
1/
03
00
01
05
02
1(
06
0'
#805000
1!
12
0(
#810000
1"
0!
15
02
1(
#815000
1!
12
0(
#820000
1#
0"
0!
11
05
02
1(
14
16
1'
#825000
1!
12
0(
#830000
1"
0!
15
02
1(
#835000
1!
12
0(
#840000
1$
0#
0"
0!
10
01
05
02
1(
04
06
0'
#845000
1!
12
0(
#850000
1"
0!
15
02
1(
#855000
1!
12
0(
#860000
1#
0"
0!
11
05
02
1(
14
16
1'
#865000
1!
12
0(
#870000
1"
0!
15
02
1(
#875000
1!
12
0(
#880000
1%
0$
0#
0"
0!
13
00
01
05
02
1(
06
0'
#885000
1!
12
0(
#890000
1"
0!
15
02
1(
#895000
1!
12
0(
#900000
1#
0"
0!
11
05
02
1(
#905000
1!
12
0(
#910000
1"
0!
15
02
1(
#915000
1!
12
0(
#920000
1$
0#
0"
0!
10
01
05
02
1(
16
1'
#925000
1!
12
0(
#930000
1"
0!
15
02
1(
#935000
1!
12
0(
#940000
1#
0"
0!
11
05
02
1(
#945000
1!
12
0(
#950000
1"
0!
15
02
1(
#955000
1!
12
0(
#960000
0&
0%
0$
0#
0"
0!
0/
03
00
01
05
02
1(
04
06
0'
#965000
1!
12
0(
14
16
1'
#970000
1"
0!
15
02
1(
04
06
0'
#975000
1!
12
0(
14
16
1'
#980000
1#
0"
0!
11
05
02
1(
04
06
0'
#985000
1!
12
0(
14
16
1'
#990000
1"
0!
15
02
1(
04
06
0'
#995000
1!
12
0(
14
16
1'
