Muxes e Decoders/Mux2x1LogicGates/simulation/qsim/MuxLogicGates.msim.vcd
$comment
	File created using the following command:
		vcd file MuxLogicGates.msim.vcd -direction
$end
$date
	Wed May 13 18:24:06 2026
$end
$version
	ModelSim Version 10.1d
$end
$timescale
	1ps
$end
$scope module MuxLogicGates_vlg_vec_tst $end
$var reg 1 ! in0 $end
$var reg 1 " in1 $end
$var reg 1 # select0 $end
$var wire 1 $ display $end
$var wire 1 % sampler $end
$scope module i1 $end
$var wire 1 & gnd $end
$var wire 1 ' vcc $end
$var wire 1 ( unknown $end
$var tri1 1 ) devclrn $end
$var tri1 1 * devpor $end
$var tri1 1 + devoe $end
$var wire 1 , select0~combout $end
$var wire 1 - in1~combout $end
$var wire 1 . in0~combout $end
$var wire 1 / u1|d~0_combout $end
$upscope $end
$upscope $end
$enddefinitions $end
#0
$dumpvars
0!
0"
0#
0$
x%
0&
1'
x(
1)
1*
1+
0,
0-
0.
0/
$end
#5000
1!
1.
0%
1/
1$
#10000
1"
0!
1-
0.
1%
0/
0$
#15000
1!
1.
0%
1/
1$
#20000
0"
0!
0-
0.
1%
0/
0$
#25000
1!
1.
0%
1/
1$
#30000
1"
0!
1-
0.
1%
0/
0$
#35000
1!
1.
0%
1/
1$
#40000
1#
0"
0!
1,
0-
0.
1%
0/
0$
#45000
1!
1.
0%
#50000
1"
0!
1-
0.
1%
1/
1$
#55000
1!
1.
0%
#60000
0"
0!
0-
0.
1%
0/
0$
#65000
1!
1.
0%
#70000
1"
0!
1-
0.
1%
1/
1$
#75000
1!
1.
0%
#80000
0#
0"
0!
0,
0-
0.
1%
0/
0$
#85000
1!
1.
0%
1/
1$
#90000
1"
0!
1-
0.
1%
0/
0$
#95000
1!
1.
0%
1/
1$
#100000
0"
0!
0-
0.
1%
0/
0$
#105000
1!
1.
0%
1/
1$
#110000
1"
0!
1-
0.
1%
0/
0$
#115000
1!
1.
0%
1/
1$
#120000
1#
0"
0!
1,
0-
0.
1%
0/
0$
#125000
1!
1.
0%
#130000
1"
0!
1-
0.
1%
1/
1$
#135000
1!
1.
0%
#140000
0"
0!
0-
0.
1%
0/
0$
#145000
1!
1.
0%
#150000
1"
0!
1-
0.
1%
1/
1$
#155000
1!
1.
0%
#160000
0#
0"
0!
0,
0-
0.
1%
0/
0$
#165000
1!
1.
0%
1/
1$
#170000
1"
0!
1-
0.
1%
0/
0$
#175000
1!
1.
0%
1/
1$
#180000
0"
0!
0-
0.
1%
0/
0$
#185000
1!
1.
0%
1/
1$
#190000
1"
0!
1-
0.
1%
0/
0$
#195000
1!
1.
0%
1/
1$
#200000
1#
0"
0!
1,
0-
0.
1%
0/
0$
#205000
1!
1.
0%
#210000
1"
0!
1-
0.
1%
1/
1$
#215000
1!
1.
0%
#220000
0"
0!
0-
0.
1%
0/
0$
#225000
1!
1.
0%
#230000
1"
0!
1-
0.
1%
1/
1$
#235000
1!
1.
0%
#240000
0#
0"
0!
0,
0-
0.
1%
0/
0$
#245000
1!
1.
0%
1/
1$
#250000
1"
0!
1-
0.
1%
0/
0$
#255000
1!
1.
0%
1/
1$
#260000
0"
0!
0-
0.
1%
0/
0$
#265000
1!
1.
0%
1/
1$
#270000
1"
0!
1-
0.
1%
0/
0$
#275000
1!
1.
0%
1/
1$
#280000
1#
0"
0!
1,
0-
0.
1%
0/
0$
#285000
1!
1.
0%
#290000
1"
0!
1-
0.
1%
1/
1$
#295000
1!
1.
0%
#300000
0"
0!
0-
0.
1%
0/
0$
#305000
1!
1.
0%
#310000
1"
0!
1-
0.
1%
1/
1$
#315000
1!
1.
0%
#320000
0#
0"
0!
0,
0-
0.
1%
0/
0$
#325000
1!
1.
0%
1/
1$
#330000
1"
0!
1-
0.
1%
0/
0$
#335000
1!
1.
0%
1/
1$
#340000
0"
0!
0-
0.
1%
0/
0$
#345000
1!
1.
0%
1/
1$
#350000
1"
0!
1-
0.
1%
0/
0$
#355000
1!
1.
0%
1/
1$
#360000
1#
0"
0!
1,
0-
0.
1%
0/
0$
#365000
1!
1.
0%
#370000
1"
0!
1-
0.
1%
1/
1$
#375000
1!
1.
0%
#380000
0"
0!
0-
0.
1%
0/
0$
#385000
1!
1.
0%
#390000
1"
0!
1-
0.
1%
1/
1$
#395000
1!
1.
0%
#400000
0#
0"
0!
0,
0-
0.
1%
0/
0$
#405000
1!
1.
0%
1/
1$
#410000
1"
0!
1-
0.
1%
0/
0$
#415000
1!
1.
0%
1/
1$
#420000
0"
0!
0-
0.
1%
0/
0$
#425000
1!
1.
0%
1/
1$
#430000
1"
0!
1-
0.
1%
0/
0$
#435000
1!
1.
0%
1/
1$
#440000
1#
0"
0!
1,
0-
0.
1%
0/
0$
#445000
1!
1.
0%
#450000
1"
0!
1-
0.
1%
1/
1$
#455000
1!
1.
0%
#460000
0"
0!
0-
0.
1%
0/
0$
#465000
1!
1.
0%
#470000
1"
0!
1-
0.
1%
1/
1$
#475000
1!
1.
0%
#480000
0#
0"
0!
0,
0-
0.
1%
0/
0$
#485000
1!
1.
0%
1/
1$
#490000
1"
0!
1-
0.
1%
0/
0$
#495000
1!
1.
0%
1/
1$
#500000
0"
0!
0-
0.
1%
0/
0$
#505000
1!
1.
0%
1/
1$
#510000
1"
0!
1-
0.
1%
0/
0$
#515000
1!
1.
0%
1/
1$
#520000
1#
0"
0!
1,
0-
0.
1%
0/
0$
#525000
1!
1.
0%
#530000
1"
0!
1-
0.
1%
1/
1$
#535000
1!
1.
0%
#540000
0"
0!
0-
0.
1%
0/
0$
#545000
1!
1.
0%
#550000
1"
0!
1-
0.
1%
1/
1$
#555000
1!
1.
0%
#560000
0#
0"
0!
0,
0-
0.
1%
0/
0$
#565000
1!
1.
0%
1/
1$
#570000
1"
0!
1-
0.
1%
0/
0$
#575000
1!
1.
0%
1/
1$
#580000
0"
0!
0-
0.
1%
0/
0$
#585000
1!
1.
0%
1/
1$
#590000
1"
0!
1-
0.
1%
0/
0$
#595000
1!
1.
0%
1/
1$
#600000
1#
0"
0!
1,
0-
0.
1%
0/
0$
#605000
1!
1.
0%
#610000
1"
0!
1-
0.
1%
1/
1$
#615000
1!
1.
0%
#620000
0"
0!
0-
0.
1%
0/
0$
#625000
1!
1.
0%
#630000
1"
0!
1-
0.
1%
1/
1$
#635000
1!
1.
0%
#640000
0#
0"
0!
0,
0-
0.
1%
0/
0$
#645000
1!
1.
0%
1/
1$
#650000
1"
0!
1-
0.
1%
0/
0$
#655000
1!
1.
0%
1/
1$
#660000
0"
0!
0-
0.
1%
0/
0$
#665000
1!
1.
0%
1/
1$
#670000
1"
0!
1-
0.
1%
0/
0$
#675000
1!
1.
0%
1/
1$
#680000
1#
0"
0!
1,
0-
0.
1%
0/
0$
#685000
1!
1.
0%
#690000
1"
0!
1-
0.
1%
1/
1$
#695000
1!
1.
0%
#700000
0"
0!
0-
0.
1%
0/
0$
#705000
1!
1.
0%
#710000
1"
0!
1-
0.
1%
1/
1$
#715000
1!
1.
0%
#720000
0#
0"
0!
0,
0-
0.
1%
0/
0$
#725000
1!
1.
0%
1/
1$
#730000
1"
0!
1-
0.
1%
0/
0$
#735000
1!
1.
0%
1/
1$
#740000
0"
0!
0-
0.
1%
0/
0$
#745000
1!
1.
0%
1/
1$
#750000
1"
0!
1-
0.
1%
0/
0$
#755000
1!
1.
0%
1/
1$
#760000
1#
0"
0!
1,
0-
0.
1%
0/
0$
#765000
1!
1.
0%
#770000
1"
0!
1-
0.
1%
1/
1$
#775000
1!
1.
0%
#780000
0"
0!
0-
0.
1%
0/
0$
#785000
1!
1.
0%
#790000
1"
0!
1-
0.
1%
1/
1$
#795000
1!
1.
0%
#800000
0#
0"
0!
0,
0-
0.
1%
0/
0$
#805000
1!
1.
0%
1/
1$
#810000
1"
0!
1-
0.
1%
0/
0$
#815000
1!
1.
0%
1/
1$
#820000
0"
0!
0-
0.
1%
0/
0$
#825000
1!
1.
0%
1/
1$
#830000
1"
0!
1-
0.
1%
0/
0$
#835000
1!
1.
0%
1/
1$
#840000
1#
0"
0!
1,
0-
0.
1%
0/
0$
#845000
1!
1.
0%
#850000
1"
0!
1-
0.
1%
1/
1$
#855000
1!
1.
0%
#860000
0"
0!
0-
0.
1%
0/
0$
#865000
1!
1.
0%
#870000
1"
0!
1-
0.
1%
1/
1$
#875000
1!
1.
0%
#880000
0#
0"
0!
0,
0-
0.
1%
0/
0$
#885000
1!
1.
0%
1/
1$
#890000
1"
0!
1-
0.
1%
0/
0$
#895000
1!
1.
0%
1/
1$
#900000
0"
0!
0-
0.
1%
0/
0$
#905000
1!
1.
0%
1/
1$
#910000
1"
0!
1-
0.
1%
0/
0$
#915000
1!
1.
0%
1/
1$
#920000
1#
0"
0!
1,
0-
0.
1%
0/
0$
#925000
1!
1.
0%
#930000
1"
0!
1-
0.
1%
1/
1$
#935000
1!
1.
0%
#940000
0"
0!
0-
0.
1%
0/
0$
#945000
1!
1.
0%
#950000
1"
0!
1-
0.
1%
1/
1$
#955000
1!
1.
0%
#960000
0#
0"
0!
0,
0-
0.
1%
0/
0$
#965000
1!
1.
0%
1/
1$
#970000
1"
0!
1-
0.
1%
0/
0$
#975000
1!
1.
0%
1/
1$
#980000
0"
0!
0-
0.
1%
0/
0$
#985000
1!
1.
0%
1/
1$
#990000
1"
0!
1-
0.
1%
0/
0$
#995000
1!
1.
0%
1/
1$
