Muxes e Decoders/DecodificadorBCDComportamental/simulation/qsim/DecodificadorBCDComportamental.msim.vcd
$comment
	File created using the following command:
		vcd file DecodificadorBCDComportamental.msim.vcd -direction
$end
$date
	Thu Apr 30 19:08:45 2026
$end
$version
	ModelSim Version 10.1d
$end
$timescale
	1ps
$end
$scope module DecodificadorBCDComportamental_vlg_vec_tst $end
$var reg 1 ! A1 $end
$var reg 1 " A2 $end
$var reg 1 # A3 $end
$var reg 1 $ A4 $end
$var wire 1 % S0 $end
$var wire 1 & S1 $end
$var wire 1 ' S2 $end
$var wire 1 ( S3 $end
$var wire 1 ) S4 $end
$var wire 1 * S5 $end
$var wire 1 + S6 $end
$var wire 1 , sampler $end
$scope module i1 $end
$var wire 1 - gnd $end
$var wire 1 . vcc $end
$var wire 1 / unknown $end
$var tri1 1 0 devclrn $end
$var tri1 1 1 devpor $end
$var tri1 1 2 devoe $end
$var wire 1 3 A4~combout $end
$var wire 1 4 A1~combout $end
$var wire 1 5 A3~combout $end
$var wire 1 6 A2~combout $end
$var wire 1 7 Mux6~0_combout $end
$var wire 1 8 Mux5~0_combout $end
$var wire 1 9 Mux4~0_combout $end
$var wire 1 : Mux3~0_combout $end
$var wire 1 ; Mux2~0_combout $end
$var wire 1 < Mux1~0_combout $end
$var wire 1 = Mux0~0_combout $end
$upscope $end
$upscope $end
$enddefinitions $end
#0
$dumpvars
0!
0"
0#
0$
1%
0&
0'
0(
0)
0*
0+
x,
0-
1.
x/
10
11
12
03
04
05
06
07
08
09
0:
0;
0<
0=
$end
#5000
1!
14
0,
1<
1;
1:
17
1&
1'
1(
1+
#10000
1"
0!
16
04
1,
1=
0;
0:
19
07
0'
0(
1)
0+
0%
#15000
1!
14
0,
1;
09
1'
0)
#20000
1#
0"
0!
15
06
04
1,
0<
1:
17
0&
1(
1+
#25000
1!
14
0,
0:
18
07
0(
1*
0+
#30000
1"
0!
16
04
1,
0;
0'
#35000
1!
14
0,
0=
1<
1;
1:
08
1&
1'
1(
0*
1%
#40000
1$
0#
0"
0!
13
05
06
04
1,
1=
0<
0;
0:
0&
0'
0(
0%
#45000
1!
14
0,
1;
1'
#50000
1"
0!
16
04
1,
0=
1<
1:
19
18
17
1&
1(
1)
1*
1+
1%
#55000
1!
14
0,
#60000
1#
0"
0!
15
06
04
1,
#65000
1!
14
0,
#70000
1"
0!
16
04
1,
#75000
1!
14
0,
#80000
0$
0#
0"
0!
03
05
06
04
1,
0<
0;
0:
09
08
07
0&
0'
0(
0)
0*
0+
#85000
1!
14
0,
1<
1;
1:
17
1&
1'
1(
1+
#90000
1"
0!
16
04
1,
1=
0;
0:
19
07
0'
0(
1)
0+
0%
#95000
1!
14
0,
1;
09
1'
0)
#100000
1#
0"
0!
15
06
04
1,
0<
1:
17
0&
1(
1+
#105000
1!
14
0,
0:
18
07
0(
1*
0+
#110000
1"
0!
16
04
1,
0;
0'
#115000
1!
14
0,
0=
1<
1;
1:
08
1&
1'
1(
0*
1%
#120000
1$
0#
0"
0!
13
05
06
04
1,
1=
0<
0;
0:
0&
0'
0(
0%
#125000
1!
14
0,
1;
1'
#130000
1"
0!
16
04
1,
0=
1<
1:
19
18
17
1&
1(
1)
1*
1+
1%
#135000
1!
14
0,
#140000
1#
0"
0!
15
06
04
1,
#145000
1!
14
0,
#150000
1"
0!
16
04
1,
#155000
1!
14
0,
#160000
0$
0#
0"
0!
03
05
06
04
1,
0<
0;
0:
09
08
07
0&
0'
0(
0)
0*
0+
#165000
1!
14
0,
1<
1;
1:
17
1&
1'
1(
1+
#170000
1"
0!
16
04
1,
1=
0;
0:
19
07
0'
0(
1)
0+
0%
#175000
1!
14
0,
1;
09
1'
0)
#180000
1#
0"
0!
15
06
04
1,
0<
1:
17
0&
1(
1+
#185000
1!
14
0,
0:
18
07
0(
1*
0+
#190000
1"
0!
16
04
1,
0;
0'
#195000
1!
14
0,
0=
1<
1;
1:
08
1&
1'
1(
0*
1%
#200000
1$
0#
0"
0!
13
05
06
04
1,
1=
0<
0;
0:
0&
0'
0(
0%
#205000
1!
14
0,
1;
1'
#210000
1"
0!
16
04
1,
0=
1<
1:
19
18
17
1&
1(
1)
1*
1+
1%
#215000
1!
14
0,
#220000
1#
0"
0!
15
06
04
1,
#225000
1!
14
0,
#230000
1"
0!
16
04
1,
#235000
1!
14
0,
#240000
0$
0#
0"
0!
03
05
06
04
1,
0<
0;
0:
09
08
07
0&
0'
0(
0)
0*
0+
#245000
1!
14
0,
1<
1;
1:
17
1&
1'
1(
1+
#250000
1"
0!
16
04
1,
1=
0;
0:
19
07
0'
0(
1)
0+
0%
#255000
1!
14
0,
1;
09
1'
0)
#260000
1#
0"
0!
15
06
04
1,
0<
1:
17
0&
1(
1+
#265000
1!
14
0,
0:
18
07
0(
1*
0+
#270000
1"
0!
16
04
1,
0;
0'
#275000
1!
14
0,
0=
1<
1;
1:
08
1&
1'
1(
0*
1%
#280000
1$
0#
0"
0!
13
05
06
04
1,
1=
0<
0;
0:
0&
0'
0(
0%
#285000
1!
14
0,
1;
1'
#290000
1"
0!
16
04
1,
0=
1<
1:
19
18
17
1&
1(
1)
1*
1+
1%
#295000
1!
14
0,
#300000
1#
0"
0!
15
06
04
1,
#305000
1!
14
0,
#310000
1"
0!
16
04
1,
#315000
1!
14
0,
#320000
0$
0#
0"
0!
03
05
06
04
1,
0<
0;
0:
09
08
07
0&
0'
0(
0)
0*
0+
#325000
1!
14
0,
1<
1;
1:
17
1&
1'
1(
1+
#330000
1"
0!
16
04
1,
1=
0;
0:
19
07
0'
0(
1)
0+
0%
#335000
1!
14
0,
1;
09
1'
0)
#340000
1#
0"
0!
15
06
04
1,
0<
1:
17
0&
1(
1+
#345000
1!
14
0,
0:
18
07
0(
1*
0+
#350000
1"
0!
16
04
1,
0;
0'
#355000
1!
14
0,
0=
1<
1;
1:
08
1&
1'
1(
0*
1%
#360000
1$
0#
0"
0!
13
05
06
04
1,
1=
0<
0;
0:
0&
0'
0(
0%
#365000
1!
14
0,
1;
1'
#370000
1"
0!
16
04
1,
0=
1<
1:
19
18
17
1&
1(
1)
1*
1+
1%
#375000
1!
14
0,
#380000
1#
0"
0!
15
06
04
1,
#385000
1!
14
0,
#390000
1"
0!
16
04
1,
#395000
1!
14
0,
#400000
0$
0#
0"
0!
03
05
06
04
1,
0<
0;
0:
09
08
07
0&
0'
0(
0)
0*
0+
#405000
1!
14
0,
1<
1;
1:
17
1&
1'
1(
1+
#410000
1"
0!
16
04
1,
1=
0;
0:
19
07
0'
0(
1)
0+
0%
#415000
1!
14
0,
1;
09
1'
0)
#420000
1#
0"
0!
15
06
04
1,
0<
1:
17
0&
1(
1+
#425000
1!
14
0,
0:
18
07
0(
1*
0+
#430000
1"
0!
16
04
1,
0;
0'
#435000
1!
14
0,
0=
1<
1;
1:
08
1&
1'
1(
0*
1%
#440000
1$
0#
0"
0!
13
05
06
04
1,
1=
0<
0;
0:
0&
0'
0(
0%
#445000
1!
14
0,
1;
1'
#450000
1"
0!
16
04
1,
0=
1<
1:
19
18
17
1&
1(
1)
1*
1+
1%
#455000
1!
14
0,
#460000
1#
0"
0!
15
06
04
1,
#465000
1!
14
0,
#470000
1"
0!
16
04
1,
#475000
1!
14
0,
#480000
0$
0#
0"
0!
03
05
06
04
1,
0<
0;
0:
09
08
07
0&
0'
0(
0)
0*
0+
#485000
1!
14
0,
1<
1;
1:
17
1&
1'
1(
1+
#490000
1"
0!
16
04
1,
1=
0;
0:
19
07
0'
0(
1)
0+
0%
#495000
1!
14
0,
1;
09
1'
0)
#500000
1#
0"
0!
15
06
04
1,
0<
1:
17
0&
1(
1+
#505000
1!
14
0,
0:
18
07
0(
1*
0+
#510000
1"
0!
16
04
1,
0;
0'
#515000
1!
14
0,
0=
1<
1;
1:
08
1&
1'
1(
0*
1%
#520000
1$
0#
0"
0!
13
05
06
04
1,
1=
0<
0;
0:
0&
0'
0(
0%
#525000
1!
14
0,
1;
1'
#530000
1"
0!
16
04
1,
0=
1<
1:
19
18
17
1&
1(
1)
1*
1+
1%
#535000
1!
14
0,
#540000
1#
0"
0!
15
06
04
1,
#545000
1!
14
0,
#550000
1"
0!
16
04
1,
#555000
1!
14
0,
#560000
0$
0#
0"
0!
03
05
06
04
1,
0<
0;
0:
09
08
07
0&
0'
0(
0)
0*
0+
#565000
1!
14
0,
1<
1;
1:
17
1&
1'
1(
1+
#570000
1"
0!
16
04
1,
1=
0;
0:
19
07
0'
0(
1)
0+
0%
#575000
1!
14
0,
1;
09
1'
0)
#580000
1#
0"
0!
15
06
04
1,
0<
1:
17
0&
1(
1+
#585000
1!
14
0,
0:
18
07
0(
1*
0+
#590000
1"
0!
16
04
1,
0;
0'
#595000
1!
14
0,
0=
1<
1;
1:
08
1&
1'
1(
0*
1%
#600000
1$
0#
0"
0!
13
05
06
04
1,
1=
0<
0;
0:
0&
0'
0(
0%
#605000
1!
14
0,
1;
1'
#610000
1"
0!
16
04
1,
0=
1<
1:
19
18
17
1&
1(
1)
1*
1+
1%
#615000
1!
14
0,
#620000
1#
0"
0!
15
06
04
1,
#625000
1!
14
0,
#630000
1"
0!
16
04
1,
#635000
1!
14
0,
#640000
0$
0#
0"
0!
03
05
06
04
1,
0<
0;
0:
09
08
07
0&
0'
0(
0)
0*
0+
#645000
1!
14
0,
1<
1;
1:
17
1&
1'
1(
1+
#650000
1"
0!
16
04
1,
1=
0;
0:
19
07
0'
0(
1)
0+
0%
#655000
1!
14
0,
1;
09
1'
0)
#660000
1#
0"
0!
15
06
04
1,
0<
1:
17
0&
1(
1+
#665000
1!
14
0,
0:
18
07
0(
1*
0+
#670000
1"
0!
16
04
1,
0;
0'
#675000
1!
14
0,
0=
1<
1;
1:
08
1&
1'
1(
0*
1%
#680000
1$
0#
0"
0!
13
05
06
04
1,
1=
0<
0;
0:
0&
0'
0(
0%
#685000
1!
14
0,
1;
1'
#690000
1"
0!
16
04
1,
0=
1<
1:
19
18
17
1&
1(
1)
1*
1+
1%
#695000
1!
14
0,
#700000
1#
0"
0!
15
06
04
1,
#705000
1!
14
0,
#710000
1"
0!
16
04
1,
#715000
1!
14
0,
#720000
0$
0#
0"
0!
03
05
06
04
1,
0<
0;
0:
09
08
07
0&
0'
0(
0)
0*
0+
#725000
1!
14
0,
1<
1;
1:
17
1&
1'
1(
1+
#730000
1"
0!
16
04
1,
1=
0;
0:
19
07
0'
0(
1)
0+
0%
#735000
1!
14
0,
1;
09
1'
0)
#740000
1#
0"
0!
15
06
04
1,
0<
1:
17
0&
1(
1+
#745000
1!
14
0,
0:
18
07
0(
1*
0+
#750000
1"
0!
16
04
1,
0;
0'
#755000
1!
14
0,
0=
1<
1;
1:
08
1&
1'
1(
0*
1%
#760000
1$
0#
0"
0!
13
05
06
04
1,
1=
0<
0;
0:
0&
0'
0(
0%
#765000
1!
14
0,
1;
1'
#770000
1"
0!
16
04
1,
0=
1<
1:
19
18
17
1&
1(
1)
1*
1+
1%
#775000
1!
14
0,
#780000
1#
0"
0!
15
06
04
1,
#785000
1!
14
0,
#790000
1"
0!
16
04
1,
#795000
1!
14
0,
#800000
0$
0#
0"
0!
03
05
06
04
1,
0<
0;
0:
09
08
07
0&
0'
0(
0)
0*
0+
#805000
1!
14
0,
1<
1;
1:
17
1&
1'
1(
1+
#810000
1"
0!
16
04
1,
1=
0;
0:
19
07
0'
0(
1)
0+
0%
#815000
1!
14
0,
1;
09
1'
0)
#820000
1#
0"
0!
15
06
04
1,
0<
1:
17
0&
1(
1+
#825000
1!
14
0,
0:
18
07
0(
1*
0+
#830000
1"
0!
16
04
1,
0;
0'
#835000
1!
14
0,
0=
1<
1;
1:
08
1&
1'
1(
0*
1%
#840000
1$
0#
0"
0!
13
05
06
04
1,
1=
0<
0;
0:
0&
0'
0(
0%
#845000
1!
14
0,
1;
1'
#850000
1"
0!
16
04
1,
0=
1<
1:
19
18
17
1&
1(
1)
1*
1+
1%
#855000
1!
14
0,
#860000
1#
0"
0!
15
06
04
1,
#865000
1!
14
0,
#870000
1"
0!
16
04
1,
#875000
1!
14
0,
#880000
0$
0#
0"
0!
03
05
06
04
1,
0<
0;
0:
09
08
07
0&
0'
0(
0)
0*
0+
#885000
1!
14
0,
1<
1;
1:
17
1&
1'
1(
1+
#890000
1"
0!
16
04
1,
1=
0;
0:
19
07
0'
0(
1)
0+
0%
#895000
1!
14
0,
1;
09
1'
0)
#900000
1#
0"
0!
15
06
04
1,
0<
1:
17
0&
1(
1+
#905000
1!
14
0,
0:
18
07
0(
1*
0+
#910000
1"
0!
16
04
1,
0;
0'
#915000
1!
14
0,
0=
1<
1;
1:
08
1&
1'
1(
0*
1%
#920000
1$
0#
0"
0!
13
05
06
04
1,
1=
0<
0;
0:
0&
0'
0(
0%
#925000
1!
14
0,
1;
1'
#930000
1"
0!
16
04
1,
0=
1<
1:
19
18
17
1&
1(
1)
1*
1+
1%
#935000
1!
14
0,
#940000
1#
0"
0!
15
06
04
1,
#945000
1!
14
0,
#950000
1"
0!
16
04
1,
#955000
1!
14
0,
#960000
0$
0#
0"
0!
03
05
06
04
1,
0<
0;
0:
09
08
07
0&
0'
0(
0)
0*
0+
#965000
1!
14
0,
1<
1;
1:
17
1&
1'
1(
1+
#970000
1"
0!
16
04
1,
1=
0;
0:
19
07
0'
0(
1)
0+
0%
#975000
1!
14
0,
1;
09
1'
0)
#980000
1#
0"
0!
15
06
04
1,
0<
1:
17
0&
1(
1+
#985000
1!
14
0,
0:
18
07
0(
1*
0+
#990000
1"
0!
16
04
1,
0;
0'
#995000
1!
14
0,
0=
1<
1;
1:
08
1&
1'
1(
0*
1%
