Calculadora/simulation/qsim/calculadora.msim.vcd
$comment
	File created using the following command:
		vcd file calculadora.msim.vcd -direction
$end
$date
	Sat May 16 11:42:07 2026
$end
$version
	ModelSim Version 10.1d
$end
$timescale
	1ps
$end
$scope module calculadora_vlg_vec_tst $end
$var reg 1 ! a0 $end
$var reg 1 " a1 $end
$var reg 1 # a2 $end
$var reg 1 $ a3 $end
$var reg 1 % a4 $end
$var reg 1 & a5 $end
$var reg 1 ' b0 $end
$var reg 1 ( b1 $end
$var reg 1 ) b2 $end
$var reg 1 * b3 $end
$var reg 1 + b4 $end
$var reg 1 , b5 $end
$var reg 1 - clk $end
$var reg 1 . e $end
$var reg 1 / f $end
$var wire 1 0 o0 $end
$var wire 1 1 o1 $end
$var wire 1 2 o2 $end
$var wire 1 3 o3 $end
$var wire 1 4 o4 $end
$var wire 1 5 o5 $end
$var wire 1 6 sampler $end
$scope module i1 $end
$var wire 1 7 gnd $end
$var wire 1 8 vcc $end
$var wire 1 9 unknown $end
$var tri1 1 : devclrn $end
$var tri1 1 ; devpor $end
$var tri1 1 < devoe $end
$var wire 1 = v3|S~0_combout $end
$var wire 1 > clk~combout $end
$var wire 1 ? clk~clkctrl_outclk $end
$var wire 1 @ a4~combout $end
$var wire 1 A a5~combout $end
$var wire 1 B b5~combout $end
$var wire 1 C v6|S~0_combout $end
$var wire 1 D b3~combout $end
$var wire 1 E a0~combout $end
$var wire 1 F a1~combout $end
$var wire 1 G b1~combout $end
$var wire 1 H u2|Cout~0_combout $end
$var wire 1 I a2~combout $end
$var wire 1 J b2~combout $end
$var wire 1 K u3|Cout~0_combout $end
$var wire 1 L u4|Cout~0_combout $end
$var wire 1 M u6|S~combout $end
$var wire 1 N f~combout $end
$var wire 1 O v2|Wout~0_combout $end
$var wire 1 P v3|Wout~0_combout $end
$var wire 1 Q v4|Wout~0_combout $end
$var wire 1 R v6|S~combout $end
$var wire 1 S x6|d~0_combout $end
$var wire 1 T e~combout $end
$var wire 1 U y1|s5~regout $end
$var wire 1 V b4~combout $end
$var wire 1 W v5|S~0_combout $end
$var wire 1 X x5|d~0_combout $end
$var wire 1 Y y1|s4~regout $end
$var wire 1 Z a3~combout $end
$var wire 1 [ v4|S~0_combout $end
$var wire 1 \ x4|d~0_combout $end
$var wire 1 ] y1|s3~regout $end
$var wire 1 ^ x3|d~0_combout $end
$var wire 1 _ y1|s2~regout $end
$var wire 1 ` v2|S~0_combout $end
$var wire 1 a x2|d~0_combout $end
$var wire 1 b y1|s1~regout $end
$var wire 1 c b0~combout $end
$var wire 1 d x1|d~0_combout $end
$var wire 1 e y1|s0~regout $end
$upscope $end
$upscope $end
$enddefinitions $end
#0
$dumpvars
1!
0"
1#
0$
0%
1&
1'
0(
0)
1*
1+
0,
0-
1.
0/
00
01
02
03
04
05
x6
07
18
x9
1:
1;
1<
1=
0>
0?
0@
1A
0B
1C
1D
1E
0F
0G
0H
1I
0J
0K
0L
1M
0N
0O
0P
1Q
0R
1S
1T
0U
1V
1W
1X
0Y
0Z
1[
1\
0]
1^
0_
0`
1a
0b
1c
0d
0e
$end
#20000
1-
1>
1?
06
1b
1_
1]
1Y
1U
11
12
13
14
15
#40000
0-
0>
0?
16
#50000
1/
1N
06
0a
0X
0S
#60000
1-
1>
1?
16
0b
0Y
0U
01
04
05
#80000
0-
0>
0?
06
#90000
0/
0N
16
1a
1X
1S
#100000
1-
1>
1?
06
1b
1Y
1U
11
14
15
#120000
0-
0>
0?
16
#140000
1-
1>
1?
06
#160000
0-
0>
0?
16
#180000
1-
1>
1?
06
#200000
0-
0>
0?
16
#220000
1-
1>
1?
06
#240000
0-
0>
0?
16
#260000
1-
1>
1?
06
#280000
0-
0>
0?
16
#300000
1-
1>
1?
06
#320000
0-
0>
0?
16
#340000
1-
1>
1?
06
#360000
0-
0>
0?
16
#380000
1-
1>
1?
06
#400000
0-
0>
0?
16
#420000
1-
1>
1?
06
#440000
0-
0>
0?
16
#460000
1-
1>
1?
06
#480000
0-
0>
0?
16
#500000
1-
1>
1?
06
#520000
0-
0>
0?
16
#540000
1-
1>
1?
06
#560000
0-
0>
0?
16
#580000
1-
1>
1?
06
#600000
0-
0>
0?
16
#620000
1-
1>
1?
06
#640000
0-
0>
0?
16
#660000
1-
1>
1?
06
#680000
0-
0>
0?
16
#700000
1-
1>
1?
06
#720000
0-
0>
0?
16
#740000
1-
1>
1?
06
#760000
0-
0>
0?
16
#780000
1-
1>
1?
06
#800000
0-
0>
0?
16
#820000
1-
1>
1?
06
#840000
0-
0>
0?
16
#860000
1-
1>
1?
06
#880000
0-
0>
0?
16
#900000
1-
1>
1?
06
#920000
0-
0>
0?
16
#940000
1-
1>
1?
06
#960000
0-
0>
0?
16
#980000
1-
1>
1?
06
