Circuitos Sequenciais/MarcaPasso/simulation/qsim/MarcaPasso.msim.vcd
$comment
	File created using the following command:
		vcd file MarcaPasso.msim.vcd -direction
$end
$date
	Wed May 13 18:50:18 2026
$end
$version
	ModelSim Version 10.1d
$end
$timescale
	1ps
$end
$scope module MarcaPasso_vlg_vec_tst $end
$var reg 1 ! clk $end
$var reg 1 " s $end
$var reg 1 # z $end
$var wire 1 $ e0 $end
$var wire 1 % e1 $end
$var wire 1 & p $end
$var wire 1 ' t $end
$var wire 1 ( sampler $end
$scope module i1 $end
$var wire 1 ) gnd $end
$var wire 1 * vcc $end
$var wire 1 + unknown $end
$var tri1 1 , devclrn $end
$var tri1 1 - devpor $end
$var tri1 1 . devoe $end
$var wire 1 / z~combout $end
$var wire 1 0 clk~combout $end
$var wire 1 1 clk~clkctrl_outclk $end
$var wire 1 2 s~combout $end
$var wire 1 3 u2|n1~0_combout $end
$var wire 1 4 u1|s1~regout $end
$var wire 1 5 u2|n0~combout $end
$var wire 1 6 u1|s0~regout $end
$var wire 1 7 u2|t~combout $end
$var wire 1 8 u2|p~combout $end
$upscope $end
$upscope $end
$enddefinitions $end
#0
$dumpvars
0!
0"
0#
0$
0%
0&
1'
x(
0)
1*
x+
1,
1-
1.
0/
00
01
02
03
04
15
06
07
08
$end
#50000
1!
10
11
0(
16
17
1$
0'
#100000
0!
00
01
1(
#150000
1!
10
11
0(
#200000
0!
00
01
1(
#220000
1"
12
0(
05
#250000
1!
10
11
1(
06
07
15
0$
1'
#280000
0"
02
0(
#300000
0!
00
01
1(
#350000
1!
10
11
0(
16
17
1$
0'
#400000
0!
00
01
1(
#440000
1#
1/
0(
05
13
#450000
1!
10
11
1(
06
14
18
03
0$
1%
1&
#470000
0#
0/
0(
#500000
0!
00
01
1(
#550000
1!
10
11
0(
04
08
07
15
0%
0&
1'
#600000
0!
00
01
1(
#650000
1!
10
11
0(
16
17
1$
0'
#700000
0!
00
01
1(
#750000
1!
10
11
0(
#800000
0!
00
01
1(
#850000
1!
10
11
0(
#900000
0!
00
01
1(
#950000
1!
10
11
0(
