Muxes e Decoders/DecodificadorBCDLogicGates/simulation/qsim/DecodificadorBCDLogicGates.msim.vcd
$comment
	File created using the following command:
		vcd file DecodificadorBCDLogicGates.msim.vcd -direction
$end
$date
	Thu Apr 30 18:30:13 2026
$end
$version
	ModelSim Version 10.1d
$end
$timescale
	1ps
$end
$scope module DecodificadorBCDLogicGates_vlg_vec_tst $end
$var reg 1 ! A1 $end
$var reg 1 " A2 $end
$var reg 1 # A3 $end
$var reg 1 $ A4 $end
$var wire 1 % s0 $end
$var wire 1 & S1 $end
$var wire 1 ' S2 $end
$var wire 1 ( S3 $end
$var wire 1 ) S4 $end
$var wire 1 * S5 $end
$var wire 1 + S6 $end
$var wire 1 , sampler $end
$scope module i1 $end
$var wire 1 - gnd $end
$var wire 1 . vcc $end
$var wire 1 / unknown $end
$var tri1 1 0 devclrn $end
$var tri1 1 1 devpor $end
$var tri1 1 2 devoe $end
$var wire 1 3 A1~combout $end
$var wire 1 4 A4~combout $end
$var wire 1 5 A2~combout $end
$var wire 1 6 A3~combout $end
$var wire 1 7 S6~0_combout $end
$var wire 1 8 S5~0_combout $end
$var wire 1 9 S4~0_combout $end
$var wire 1 : S3~0_combout $end
$var wire 1 ; S2~0_combout $end
$var wire 1 < S1~0_combout $end
$var wire 1 = s0~0_combout $end
$upscope $end
$upscope $end
$enddefinitions $end
#0
$dumpvars
0!
0"
0#
0$
0%
0&
0'
0(
0)
0*
1+
x,
0-
1.
x/
10
11
12
03
04
05
06
17
08
09
0:
0;
0<
0=
$end
#25000
1!
13
0,
1=
1:
19
18
1%
1(
1)
1*
#50000
1"
0!
15
03
1,
0=
1;
0:
09
07
0%
1'
0(
0)
0+
#75000
1!
13
0,
0;
19
0'
1)
#100000
1#
0"
0!
16
05
03
1,
1=
1:
08
1%
1(
0*
#125000
1!
13
0,
0=
1<
0:
0%
1&
0(
#150000
1"
0!
15
03
1,
09
0)
#175000
1!
13
0,
0<
1:
19
18
17
0&
1(
1)
1*
1+
#200000
1$
0#
0"
0!
14
06
05
03
1,
0:
09
08
07
0(
0)
0*
0+
#225000
1!
13
0,
19
1)
#250000
1"
0!
15
03
1,
1=
1<
1;
1:
18
17
1%
1&
1'
1(
1*
1+
#275000
1!
13
0,
#300000
1#
0"
0!
16
05
03
1,
#325000
1!
13
0,
#350000
1"
0!
15
03
1,
#375000
1!
13
0,
#400000
0$
0#
0"
0!
04
06
05
03
1,
0=
0<
0;
0:
09
08
0%
0&
0'
0(
0)
0*
#425000
1!
13
0,
1=
1:
19
18
1%
1(
1)
1*
#450000
1"
0!
15
03
1,
0=
1;
0:
09
07
0%
1'
0(
0)
0+
#475000
1!
13
0,
0;
19
0'
1)
#500000
1#
0"
0!
16
05
03
1,
1=
1:
08
1%
1(
0*
#525000
1!
13
0,
0=
1<
0:
0%
1&
0(
#550000
1"
0!
15
03
1,
09
0)
#575000
1!
13
0,
0<
1:
19
18
17
0&
1(
1)
1*
1+
#600000
1$
0#
0"
0!
14
06
05
03
1,
0:
09
08
07
0(
0)
0*
0+
#625000
1!
13
0,
19
1)
#650000
1"
0!
15
03
1,
1=
1<
1;
1:
18
17
1%
1&
1'
1(
1*
1+
#675000
1!
13
0,
#700000
1#
0"
0!
16
05
03
1,
#725000
1!
13
0,
#750000
1"
0!
15
03
1,
#775000
1!
13
0,
#800000
0$
0#
0"
0!
04
06
05
03
1,
0=
0<
0;
0:
09
08
0%
0&
0'
0(
0)
0*
#825000
1!
13
0,
1=
1:
19
18
1%
1(
1)
1*
#850000
1"
0!
15
03
1,
0=
1;
0:
09
07
0%
1'
0(
0)
0+
#875000
1!
13
0,
0;
19
0'
1)
#900000
1#
0"
0!
16
05
03
1,
1=
1:
08
1%
1(
0*
#925000
1!
13
0,
0=
1<
0:
0%
1&
0(
#950000
1"
0!
15
03
1,
09
0)
#975000
1!
13
0,
0<
1:
19
18
17
0&
1(
1)
1*
1+
