ALU/ULA/simulation/qsim/ULA.msim.vcd
$comment
	File created using the following command:
		vcd file ULA.msim.vcd -direction
$end
$date
	Tue May 19 16:59:14 2026
$end
$version
	ModelSim Version 10.1d
$end
$timescale
	1ps
$end
$scope module ULA_vlg_vec_tst $end
$var reg 1 ! a0 $end
$var reg 1 " a1 $end
$var reg 1 # a2 $end
$var reg 1 $ a3 $end
$var reg 1 % a4 $end
$var reg 1 & a5 $end
$var reg 1 ' b0 $end
$var reg 1 ( b1 $end
$var reg 1 ) b2 $end
$var reg 1 * b3 $end
$var reg 1 + b4 $end
$var reg 1 , b5 $end
$var reg 1 - clk $end
$var reg 1 . e $end
$var reg 1 / x $end
$var reg 1 0 y $end
$var reg 1 1 z $end
$var wire 1 2 s0 $end
$var wire 1 3 s1 $end
$var wire 1 4 s2 $end
$var wire 1 5 s3 $end
$var wire 1 6 s4 $end
$var wire 1 7 s5 $end
$var wire 1 8 sampler $end
$scope module i1 $end
$var wire 1 9 gnd $end
$var wire 1 : vcc $end
$var wire 1 ; unknown $end
$var tri1 1 < devclrn $end
$var tri1 1 = devpor $end
$var tri1 1 > devoe $end
$var wire 1 ? t1|ib3~0_combout $end
$var wire 1 @ u6|S~1_combout $end
$var wire 1 A u1|Cout~2_combout $end
$var wire 1 B u1|Cout~3_combout $end
$var wire 1 C u1|S~2_combout $end
$var wire 1 D b3~combout $end
$var wire 1 E b0~combout $end
$var wire 1 F clk~combout $end
$var wire 1 G clk~clkctrl_outclk $end
$var wire 1 H y~combout $end
$var wire 1 I a5~combout $end
$var wire 1 J z~combout $end
$var wire 1 K u6|S~0_combout $end
$var wire 1 L b5~combout $end
$var wire 1 M x~combout $end
$var wire 1 N a2~combout $end
$var wire 1 O b2~combout $end
$var wire 1 P t1|ia2~0_combout $end
$var wire 1 Q t1|ia2~1_combout $end
$var wire 1 R b1~combout $end
$var wire 1 S a1~combout $end
$var wire 1 T t1|ia1~0_combout $end
$var wire 1 U t1|ia1~1_combout $end
$var wire 1 V t1|ib1~0_combout $end
$var wire 1 W t1|ib5~0_combout $end
$var wire 1 X u2|Cout~0_combout $end
$var wire 1 Y t1|ib2~0_combout $end
$var wire 1 Z u3|Cout~0_combout $end
$var wire 1 [ a3~combout $end
$var wire 1 \ t1|ia3~0_combout $end
$var wire 1 ] t1|ia3~1_combout $end
$var wire 1 ^ u4|Cout~0_combout $end
$var wire 1 _ b4~combout $end
$var wire 1 ` t1|ib4~0_combout $end
$var wire 1 a a4~combout $end
$var wire 1 b t1|ia4~0_combout $end
$var wire 1 c t1|ia4~1_combout $end
$var wire 1 d u5|Cout~0_combout $end
$var wire 1 e u6|S~2_combout $end
$var wire 1 f e~combout $end
$var wire 1 g r1|s5~regout $end
$var wire 1 h u5|S~combout $end
$var wire 1 i r1|s4~regout $end
$var wire 1 j u4|S~combout $end
$var wire 1 k r1|s3~regout $end
$var wire 1 l u3|S~combout $end
$var wire 1 m r1|s2~regout $end
$var wire 1 n u2|S~combout $end
$var wire 1 o r1|s1~regout $end
$var wire 1 p u1|S~3_combout $end
$var wire 1 q a0~combout $end
$var wire 1 r u1|S~combout $end
$var wire 1 s r1|s0~regout $end
$upscope $end
$upscope $end
$enddefinitions $end
#0
$dumpvars
1!
0"
1#
0$
0%
1&
1'
0(
0)
1*
1+
0,
0-
1.
0/
00
01
05
06
07
x8
09
1:
x;
1<
1=
1>
1?
0@
1A
1B
1C
1D
1E
0F
0G
0H
1I
0J
1K
0L
0M
1N
0O
0P
1Q
0R
0S
0T
0U
0V
0W
0X
0Y
0Z
0[
0\
0]
0^
1_
1`
0a
0b
0c
0d
1e
1f
0g
1h
0i
1j
0k
1l
0m
1n
0o
0p
02
03
04
1q
0r
0s
$end
#5000
1-
1F
1G
08
1o
1m
1k
1i
1g
13
14
15
16
17
#10000
0-
0F
0G
18
#15000
1-
1F
1G
08
#20000
11
0-
1J
0F
0G
18
1b
0`
1\
1Y
1V
1P
0K
0?
0h
0l
1Z
0n
1X
0e
0j
1j
1l
#25000
1-
1F
1G
08
0o
0i
0g
03
06
07
#30000
0-
0F
0G
18
#35000
1-
1F
1G
08
#40000
10
01
0-
1H
0J
0F
0G
18
1W
1K
1@
1`
0Y
0V
1?
1n
0l
0X
1e
1l
0Z
0j
#45000
1-
1F
1G
08
1o
0k
1g
13
05
17
#50000
0-
0F
0G
18
#55000
1-
1F
1G
08
#60000
11
0-
1J
0F
0G
18
1p
0`
1Y
1V
1T
0P
0C
0A
0?
1r
0B
0n
#65000
1-
1F
1G
08
1s
0o
12
03
#70000
0-
0F
0G
18
#75000
1-
1F
1G
08
#80000
1/
00
01
0-
1M
0H
0J
0F
0G
18
1c
1]
1U
0Q
0K
0@
0b
0\
0T
1A
1`
0Y
0V
1?
1h
1j
1n
0l
0e
0c
0]
0U
0h
0j
0n
#85000
1-
1F
1G
08
0m
0g
04
07
#90000
0-
0F
0G
18
#95000
1-
1F
1G
08
#100000
11
0-
1J
0F
0G
18
1b
0`
1\
1Y
1V
1P
1K
1C
1@
0?
1c
1]
1Q
1e
1h
1j
1l
#105000
1-
1F
1G
08
1m
1k
1i
1g
14
15
16
17
#110000
0-
0F
0G
18
#115000
1-
1F
1G
08
#120000
10
01
0-
1H
0J
0F
0G
18
0p
0@
1`
0Y
0V
1?
0r
#125000
1-
1F
1G
08
0s
02
#130000
0-
0F
0G
18
#135000
1-
1F
1G
08
#140000
11
0-
1J
0F
0G
18
0`
1Y
1V
1T
0P
0K
0A
1@
0?
1U
0Q
0e
1n
0l
#145000
1-
1F
1G
08
1o
0m
0g
13
04
07
#150000
0-
0F
0G
18
#155000
1-
1F
1G
08
#160000
0/
00
01
0-
0M
0H
0J
0F
0G
18
0c
0]
0W
0U
1Q
1K
0@
0b
0\
0T
1A
1`
0Y
0V
1?
0n
1l
1e
1B
1n
#165000
1-
1F
1G
08
1m
1g
14
17
#170000
0-
0F
0G
18
#175000
1-
1F
1G
08
#180000
11
0-
1J
0F
0G
18
1b
0`
1\
1Y
1V
1P
0K
0?
0h
0l
1Z
0n
1X
0e
0j
1j
1l
#185000
1-
1F
1G
08
0o
0i
0g
03
06
07
#190000
0-
0F
0G
18
#195000
1-
1F
1G
08
#200000
10
01
0-
1H
0J
0F
0G
18
1W
1K
1@
1`
0Y
0V
1?
1n
0l
0X
1e
1l
0Z
0j
#205000
1-
1F
1G
08
1o
0k
1g
13
05
17
#210000
0-
0F
0G
18
#215000
1-
1F
1G
08
#220000
11
0-
1J
0F
0G
18
1p
0`
1Y
1V
1T
0P
0C
0A
0?
1r
0B
0n
#225000
1-
1F
1G
08
1s
0o
12
03
#230000
0-
0F
0G
18
#235000
1-
1F
1G
08
#240000
1/
00
01
0-
1M
0H
0J
0F
0G
18
1c
1]
1U
0Q
0K
0@
0b
0\
0T
1A
1`
0Y
0V
1?
1h
1j
1n
0l
0e
0c
0]
0U
0h
0j
0n
#245000
1-
1F
1G
08
0m
0g
04
07
#250000
0-
0F
0G
18
#255000
1-
1F
1G
08
#260000
11
0-
1J
0F
0G
18
1b
0`
1\
1Y
1V
1P
1K
1C
1@
0?
1c
1]
1Q
1e
1h
1j
1l
#265000
1-
1F
1G
08
1m
1k
1i
1g
14
15
16
17
#270000
0-
0F
0G
18
#275000
1-
1F
1G
08
#280000
10
01
0-
1H
0J
0F
0G
18
0p
0@
1`
0Y
0V
1?
0r
#285000
1-
1F
1G
08
0s
02
#290000
0-
0F
0G
18
#295000
1-
1F
1G
08
#300000
11
0-
1J
0F
0G
18
0`
1Y
1V
1T
0P
0K
0A
1@
0?
1U
0Q
0e
1n
0l
#305000
1-
1F
1G
08
1o
0m
0g
13
04
07
#310000
0-
0F
0G
18
#315000
1-
1F
1G
08
#320000
0/
00
01
0-
0M
0H
0J
0F
0G
18
0c
0]
0W
0U
1Q
1K
0@
0b
0\
0T
1A
1`
0Y
0V
1?
0n
1l
1e
1B
1n
#325000
1-
1F
1G
08
1m
1g
14
17
#330000
0-
0F
0G
18
#335000
1-
1F
1G
08
#340000
11
0-
1J
0F
0G
18
1b
0`
1\
1Y
1V
1P
0K
0?
0h
0l
1Z
0n
1X
0e
0j
1j
1l
#345000
1-
1F
1G
08
0o
0i
0g
03
06
07
#350000
0-
0F
0G
18
#355000
1-
1F
1G
08
#360000
10
01
0-
1H
0J
0F
0G
18
1W
1K
1@
1`
0Y
0V
1?
1n
0l
0X
1e
1l
0Z
0j
#365000
1-
1F
1G
08
1o
0k
1g
13
05
17
#370000
0-
0F
0G
18
#375000
1-
1F
1G
08
#380000
11
0-
1J
0F
0G
18
1p
0`
1Y
1V
1T
0P
0C
0A
0?
1r
0B
0n
#385000
1-
1F
1G
08
1s
0o
12
03
#390000
0-
0F
0G
18
#395000
1-
1F
1G
08
#400000
1/
00
01
0-
1M
0H
0J
0F
0G
18
1c
1]
1U
0Q
0K
0@
0b
0\
0T
1A
1`
0Y
0V
1?
1h
1j
1n
0l
0e
0c
0]
0U
0h
0j
0n
#405000
1-
1F
1G
08
0m
0g
04
07
#410000
0-
0F
0G
18
#415000
1-
1F
1G
08
#420000
11
0-
1J
0F
0G
18
1b
0`
1\
1Y
1V
1P
1K
1C
1@
0?
1c
1]
1Q
1e
1h
1j
1l
#425000
1-
1F
1G
08
1m
1k
1i
1g
14
15
16
17
#430000
0-
0F
0G
18
#435000
1-
1F
1G
08
#440000
10
01
0-
1H
0J
0F
0G
18
0p
0@
1`
0Y
0V
1?
0r
#445000
1-
1F
1G
08
0s
02
#450000
0-
0F
0G
18
#455000
1-
1F
1G
08
#460000
11
0-
1J
0F
0G
18
0`
1Y
1V
1T
0P
0K
0A
1@
0?
1U
0Q
0e
1n
0l
#465000
1-
1F
1G
08
1o
0m
0g
13
04
07
#470000
0-
0F
0G
18
#475000
1-
1F
1G
08
#480000
0/
00
01
0-
0M
0H
0J
0F
0G
18
0c
0]
0W
0U
1Q
1K
0@
0b
0\
0T
1A
1`
0Y
0V
1?
0n
1l
1e
1B
1n
#485000
1-
1F
1G
08
1m
1g
14
17
#490000
0-
0F
0G
18
#495000
1-
1F
1G
08
#500000
11
0-
1J
0F
0G
18
1b
0`
1\
1Y
1V
1P
0K
0?
0h
0l
1Z
0n
1X
0e
0j
1j
1l
#505000
1-
1F
1G
08
0o
0i
0g
03
06
07
#510000
0-
0F
0G
18
#515000
1-
1F
1G
08
#520000
10
01
0-
1H
0J
0F
0G
18
1W
1K
1@
1`
0Y
0V
1?
1n
0l
0X
1e
1l
0Z
0j
#525000
1-
1F
1G
08
1o
0k
1g
13
05
17
#530000
0-
0F
0G
18
#535000
1-
1F
1G
08
#540000
11
0-
1J
0F
0G
18
1p
0`
1Y
1V
1T
0P
0C
0A
0?
1r
0B
0n
#545000
1-
1F
1G
08
1s
0o
12
03
#550000
0-
0F
0G
18
#555000
1-
1F
1G
08
#560000
1/
00
01
0-
1M
0H
0J
0F
0G
18
1c
1]
1U
0Q
0K
0@
0b
0\
0T
1A
1`
0Y
0V
1?
1h
1j
1n
0l
0e
0c
0]
0U
0h
0j
0n
#565000
1-
1F
1G
08
0m
0g
04
07
#570000
0-
0F
0G
18
#575000
1-
1F
1G
08
#580000
11
0-
1J
0F
0G
18
1b
0`
1\
1Y
1V
1P
1K
1C
1@
0?
1c
1]
1Q
1e
1h
1j
1l
#585000
1-
1F
1G
08
1m
1k
1i
1g
14
15
16
17
#590000
0-
0F
0G
18
#595000
1-
1F
1G
08
#600000
10
01
0-
1H
0J
0F
0G
18
0p
0@
1`
0Y
0V
1?
0r
#605000
1-
1F
1G
08
0s
02
#610000
0-
0F
0G
18
#615000
1-
1F
1G
08
#620000
11
0-
1J
0F
0G
18
0`
1Y
1V
1T
0P
0K
0A
1@
0?
1U
0Q
0e
1n
0l
#625000
1-
1F
1G
08
1o
0m
0g
13
04
07
#630000
0-
0F
0G
18
#635000
1-
1F
1G
08
#640000
0/
00
01
0-
0M
0H
0J
0F
0G
18
0c
0]
0W
0U
1Q
1K
0@
0b
0\
0T
1A
1`
0Y
0V
1?
0n
1l
1e
1B
1n
#645000
1-
1F
1G
08
1m
1g
14
17
#650000
0-
0F
0G
18
#655000
1-
1F
1G
08
#660000
11
0-
1J
0F
0G
18
1b
0`
1\
1Y
1V
1P
0K
0?
0h
0l
1Z
0n
1X
0e
0j
1j
1l
#665000
1-
1F
1G
08
0o
0i
0g
03
06
07
#670000
0-
0F
0G
18
#675000
1-
1F
1G
08
#680000
10
01
0-
1H
0J
0F
0G
18
1W
1K
1@
1`
0Y
0V
1?
1n
0l
0X
1e
1l
0Z
0j
#685000
1-
1F
1G
08
1o
0k
1g
13
05
17
#690000
0-
0F
0G
18
#695000
1-
1F
1G
08
#700000
11
0-
1J
0F
0G
18
1p
0`
1Y
1V
1T
0P
0C
0A
0?
1r
0B
0n
#705000
1-
1F
1G
08
1s
0o
12
03
#710000
0-
0F
0G
18
#715000
1-
1F
1G
08
#720000
1/
00
01
0-
1M
0H
0J
0F
0G
18
1c
1]
1U
0Q
0K
0@
0b
0\
0T
1A
1`
0Y
0V
1?
1h
1j
1n
0l
0e
0c
0]
0U
0h
0j
0n
#725000
1-
1F
1G
08
0m
0g
04
07
#730000
0-
0F
0G
18
#735000
1-
1F
1G
08
#740000
11
0-
1J
0F
0G
18
1b
0`
1\
1Y
1V
1P
1K
1C
1@
0?
1c
1]
1Q
1e
1h
1j
1l
#745000
1-
1F
1G
08
1m
1k
1i
1g
14
15
16
17
#750000
0-
0F
0G
18
#755000
1-
1F
1G
08
#760000
10
01
0-
1H
0J
0F
0G
18
0p
0@
1`
0Y
0V
1?
0r
#765000
1-
1F
1G
08
0s
02
#770000
0-
0F
0G
18
#775000
1-
1F
1G
08
#780000
11
0-
1J
0F
0G
18
0`
1Y
1V
1T
0P
0K
0A
1@
0?
1U
0Q
0e
1n
0l
#785000
1-
1F
1G
08
1o
0m
0g
13
04
07
#790000
0-
0F
0G
18
#795000
1-
1F
1G
08
#800000
0/
00
01
0-
0M
0H
0J
0F
0G
18
0c
0]
0W
0U
1Q
1K
0@
0b
0\
0T
1A
1`
0Y
0V
1?
0n
1l
1e
1B
1n
#805000
1-
1F
1G
08
1m
1g
14
17
#810000
0-
0F
0G
18
#815000
1-
1F
1G
08
#820000
11
0-
1J
0F
0G
18
1b
0`
1\
1Y
1V
1P
0K
0?
0h
0l
1Z
0n
1X
0e
0j
1j
1l
#825000
1-
1F
1G
08
0o
0i
0g
03
06
07
#830000
0-
0F
0G
18
#835000
1-
1F
1G
08
#840000
10
01
0-
1H
0J
0F
0G
18
1W
1K
1@
1`
0Y
0V
1?
1n
0l
0X
1e
1l
0Z
0j
#845000
1-
1F
1G
08
1o
0k
1g
13
05
17
#850000
0-
0F
0G
18
#855000
1-
1F
1G
08
#860000
11
0-
1J
0F
0G
18
1p
0`
1Y
1V
1T
0P
0C
0A
0?
1r
0B
0n
#865000
1-
1F
1G
08
1s
0o
12
03
#870000
0-
0F
0G
18
#875000
1-
1F
1G
08
#880000
1/
00
01
0-
1M
0H
0J
0F
0G
18
1c
1]
1U
0Q
0K
0@
0b
0\
0T
1A
1`
0Y
0V
1?
1h
1j
1n
0l
0e
0c
0]
0U
0h
0j
0n
#885000
1-
1F
1G
08
0m
0g
04
07
#890000
0-
0F
0G
18
#895000
1-
1F
1G
08
#900000
11
0-
1J
0F
0G
18
1b
0`
1\
1Y
1V
1P
1K
1C
1@
0?
1c
1]
1Q
1e
1h
1j
1l
#905000
1-
1F
1G
08
1m
1k
1i
1g
14
15
16
17
#910000
0-
0F
0G
18
#915000
1-
1F
1G
08
#920000
10
01
0-
1H
0J
0F
0G
18
0p
0@
1`
0Y
0V
1?
0r
#925000
1-
1F
1G
08
0s
02
#930000
0-
0F
0G
18
#935000
1-
1F
1G
08
#940000
11
0-
1J
0F
0G
18
0`
1Y
1V
1T
0P
0K
0A
1@
0?
1U
0Q
0e
1n
0l
#945000
1-
1F
1G
08
1o
0m
0g
13
04
07
#950000
0-
0F
0G
18
#955000
1-
1F
1G
08
#960000
0/
00
01
0-
0M
0H
0J
0F
0G
18
0c
0]
0W
0U
1Q
1K
0@
0b
0\
0T
1A
1`
0Y
0V
1?
0n
1l
1e
1B
1n
#965000
1-
1F
1G
08
1m
1g
14
17
#970000
0-
0F
0G
18
#975000
1-
1F
1G
08
#980000
11
0-
1J
0F
0G
18
1b
0`
1\
1Y
1V
1P
0K
0?
0h
0l
1Z
0n
1X
0e
0j
1j
1l
#985000
1-
1F
1G
08
0o
0i
0g
03
06
07
#990000
0-
0F
0G
18
#995000
1-
1F
1G
08
