ALU/ULA/simulation/qsim/ULA.msim.vcd
$comment
	File created using the following command:
		vcd file ULA.msim.vcd -direction
$end
$date
	Sat May 16 20:40:18 2026
$end
$version
	ModelSim Version 10.1d
$end
$timescale
	1ps
$end
$scope module ULA_vlg_vec_tst $end
$var reg 1 ! a0 $end
$var reg 1 " a1 $end
$var reg 1 # a2 $end
$var reg 1 $ a3 $end
$var reg 1 % a4 $end
$var reg 1 & a5 $end
$var reg 1 ' b0 $end
$var reg 1 ( b1 $end
$var reg 1 ) b2 $end
$var reg 1 * b3 $end
$var reg 1 + b4 $end
$var reg 1 , b5 $end
$var reg 1 - clk $end
$var reg 1 . e $end
$var reg 1 / x $end
$var reg 1 0 y $end
$var reg 1 1 z $end
$var wire 1 2 s0 $end
$var wire 1 3 s1 $end
$var wire 1 4 s2 $end
$var wire 1 5 s3 $end
$var wire 1 6 s4 $end
$var wire 1 7 s5 $end
$var wire 1 8 sampler $end
$scope module i1 $end
$var wire 1 9 gnd $end
$var wire 1 : vcc $end
$var wire 1 ; unknown $end
$var tri1 1 < devclrn $end
$var tri1 1 = devpor $end
$var tri1 1 > devoe $end
$var wire 1 ? t1|ib3~0_combout $end
$var wire 1 @ u1|Cout~0_combout $end
$var wire 1 A u1|Cout~1_combout $end
$var wire 1 B u2|Cout~0_combout $end
$var wire 1 C u4|Cout~0_combout $end
$var wire 1 D u6|S~1_combout $end
$var wire 1 E b4~combout $end
$var wire 1 F b3~combout $end
$var wire 1 G clk~combout $end
$var wire 1 H clk~clkctrl_outclk $end
$var wire 1 I x~combout $end
$var wire 1 J a5~combout $end
$var wire 1 K y~combout $end
$var wire 1 L u6|S~0_combout $end
$var wire 1 M b5~combout $end
$var wire 1 N a4~combout $end
$var wire 1 O z~combout $end
$var wire 1 P t1|ia4~0_combout $end
$var wire 1 Q t1|ia4~1_combout $end
$var wire 1 R t1|ib4~0_combout $end
$var wire 1 S t1|process_0~0_combout $end
$var wire 1 T u5|Cout~0_combout $end
$var wire 1 U u6|S~2_combout $end
$var wire 1 V e~combout $end
$var wire 1 W r1|s5~regout $end
$var wire 1 X u5|S~combout $end
$var wire 1 Y r1|s4~regout $end
$var wire 1 Z a3~combout $end
$var wire 1 [ t1|ia3~0_combout $end
$var wire 1 \ t1|ia3~1_combout $end
$var wire 1 ] a2~combout $end
$var wire 1 ^ b2~combout $end
$var wire 1 _ t1|ia2~0_combout $end
$var wire 1 ` t1|ia2~1_combout $end
$var wire 1 a t1|ib2~0_combout $end
$var wire 1 b u3|Cout~0_combout $end
$var wire 1 c u4|S~combout $end
$var wire 1 d r1|s3~regout $end
$var wire 1 e u3|S~combout $end
$var wire 1 f r1|s2~regout $end
$var wire 1 g b1~combout $end
$var wire 1 h t1|ib1~0_combout $end
$var wire 1 i a1~combout $end
$var wire 1 j t1|ia1~0_combout $end
$var wire 1 k t1|ia1~1_combout $end
$var wire 1 l u2|S~combout $end
$var wire 1 m r1|s1~regout $end
$var wire 1 n a0~combout $end
$var wire 1 o b0~combout $end
$var wire 1 p t1|ia0~0_combout $end
$var wire 1 q u1|S~0_combout $end
$var wire 1 r u1|S~combout $end
$var wire 1 s r1|s0~regout $end
$upscope $end
$upscope $end
$enddefinitions $end
#0
$dumpvars
1!
0"
1#
0$
0%
1&
1'
0(
0)
1*
1+
0,
0-
1.
0/
00
01
05
06
07
x8
09
1:
x;
1<
1=
1>
1?
1@
1A
0B
0C
0D
1E
1F
0G
0H
0I
1J
0K
1L
0M
0N
0O
0P
0Q
1R
0S
0T
1U
1V
0W
1X
0Y
0Z
0[
0\
1]
0^
0_
1`
0a
0b
1c
0d
1e
0f
0g
0h
0i
0j
0k
1l
0m
1n
1o
1p
02
03
04
0q
0r
0s
$end
#5000
1-
1G
1H
08
1m
1f
1d
1Y
1W
13
14
15
16
17
#10000
0-
0G
0H
18
#15000
1-
1G
1H
08
#20000
11
0-
1O
0G
0H
18
1h
1a
1_
1[
0R
1P
0L
0?
0l
1B
0e
1b
0X
0U
0c
1e
1c
#25000
1-
1G
1H
08
0m
0Y
0W
03
06
07
#30000
0-
0G
0H
18
#35000
1-
1G
1H
08
#40000
10
01
0-
1K
0O
0G
0H
18
0p
1S
1L
1D
0h
0a
1R
1?
1l
0e
0B
1U
1e
0b
0c
#45000
1-
1G
1H
08
1m
0d
1W
13
05
17
#50000
0-
0G
0H
18
#55000
1-
1G
1H
08
#60000
11
0-
1O
0G
0H
18
1q
1j
1h
1a
0_
0R
0@
0?
1r
0A
0l
#65000
1-
1G
1H
08
1s
0m
12
03
#70000
0-
0G
0H
18
#75000
1-
1G
1H
08
#80000
1/
00
01
0-
1I
0K
0O
0G
0H
18
0r
1k
0`
1\
1Q
0L
0D
1p
0j
0[
0P
1@
0h
0a
1R
1?
1l
0e
1c
1X
0U
1r
0k
0\
0Q
0l
0c
0X
#85000
1-
1G
1H
08
0f
0W
04
07
#90000
0-
0G
0H
18
#95000
1-
1G
1H
08
#100000
11
0-
1O
0G
0H
18
1h
1a
1_
1[
0R
1P
1L
1D
0?
1`
1\
1Q
1U
1e
1c
1X
#105000
1-
1G
1H
08
1f
1d
1Y
1W
14
15
16
17
#110000
0-
0G
0H
18
#115000
1-
1G
1H
08
#120000
10
01
0-
1K
0O
0G
0H
18
0p
0D
0h
0a
1R
1?
0r
#125000
1-
1G
1H
08
0s
02
#130000
0-
0G
0H
18
#135000
1-
1G
1H
08
#140000
11
0-
1O
0G
0H
18
1j
1h
1a
0_
0R
0L
1D
0@
0?
1k
0`
0U
1l
0e
#145000
1-
1G
1H
08
1m
0f
0W
13
04
07
#150000
0-
0G
0H
18
#155000
1-
1G
1H
08
#160000
0/
00
01
0-
0I
0K
0O
0G
0H
18
1r
0q
0k
1`
0\
0S
0Q
1L
0D
1p
0j
0[
0P
1@
0h
0a
1R
1?
0r
0l
1e
1U
1A
1l
#165000
1-
1G
1H
08
1f
1W
14
17
#170000
0-
0G
0H
18
#175000
1-
1G
1H
08
#180000
11
0-
1O
0G
0H
18
1h
1a
1_
1[
0R
1P
0L
0?
0l
1B
0e
1b
0X
0U
0c
1e
1c
#185000
1-
1G
1H
08
0m
0Y
0W
03
06
07
#190000
0-
0G
0H
18
#195000
1-
1G
1H
08
#200000
10
01
0-
1K
0O
0G
0H
18
0p
1S
1L
1D
0h
0a
1R
1?
1l
0e
0B
1U
1e
0b
0c
#205000
1-
1G
1H
08
1m
0d
1W
13
05
17
#210000
0-
0G
0H
18
#215000
1-
1G
1H
08
#220000
11
0-
1O
0G
0H
18
1q
1j
1h
1a
0_
0R
0@
0?
1r
0A
0l
#225000
1-
1G
1H
08
1s
0m
12
03
#230000
0-
0G
0H
18
#235000
1-
1G
1H
08
#240000
1/
00
01
0-
1I
0K
0O
0G
0H
18
0r
1k
0`
1\
1Q
0L
0D
1p
0j
0[
0P
1@
0h
0a
1R
1?
1l
0e
1c
1X
0U
1r
0k
0\
0Q
0l
0c
0X
#245000
1-
1G
1H
08
0f
0W
04
07
#250000
0-
0G
0H
18
#255000
1-
1G
1H
08
#260000
11
0-
1O
0G
0H
18
1h
1a
1_
1[
0R
1P
1L
1D
0?
1`
1\
1Q
1U
1e
1c
1X
#265000
1-
1G
1H
08
1f
1d
1Y
1W
14
15
16
17
#270000
0-
0G
0H
18
#275000
1-
1G
1H
08
#280000
10
01
0-
1K
0O
0G
0H
18
0p
0D
0h
0a
1R
1?
0r
#285000
1-
1G
1H
08
0s
02
#290000
0-
0G
0H
18
#295000
1-
1G
1H
08
#300000
11
0-
1O
0G
0H
18
1j
1h
1a
0_
0R
0L
1D
0@
0?
1k
0`
0U
1l
0e
#305000
1-
1G
1H
08
1m
0f
0W
13
04
07
#310000
0-
0G
0H
18
#315000
1-
1G
1H
08
#320000
0/
00
01
0-
0I
0K
0O
0G
0H
18
1r
0q
0k
1`
0\
0S
0Q
1L
0D
1p
0j
0[
0P
1@
0h
0a
1R
1?
0r
0l
1e
1U
1A
1l
#325000
1-
1G
1H
08
1f
1W
14
17
#330000
0-
0G
0H
18
#335000
1-
1G
1H
08
#340000
11
0-
1O
0G
0H
18
1h
1a
1_
1[
0R
1P
0L
0?
0l
1B
0e
1b
0X
0U
0c
1e
1c
#345000
1-
1G
1H
08
0m
0Y
0W
03
06
07
#350000
0-
0G
0H
18
#355000
1-
1G
1H
08
#360000
10
01
0-
1K
0O
0G
0H
18
0p
1S
1L
1D
0h
0a
1R
1?
1l
0e
0B
1U
1e
0b
0c
#365000
1-
1G
1H
08
1m
0d
1W
13
05
17
#370000
0-
0G
0H
18
#375000
1-
1G
1H
08
#380000
11
0-
1O
0G
0H
18
1q
1j
1h
1a
0_
0R
0@
0?
1r
0A
0l
#385000
1-
1G
1H
08
1s
0m
12
03
#390000
0-
0G
0H
18
#395000
1-
1G
1H
08
#400000
1/
00
01
0-
1I
0K
0O
0G
0H
18
0r
1k
0`
1\
1Q
0L
0D
1p
0j
0[
0P
1@
0h
0a
1R
1?
1l
0e
1c
1X
0U
1r
0k
0\
0Q
0l
0c
0X
#405000
1-
1G
1H
08
0f
0W
04
07
#410000
0-
0G
0H
18
#415000
1-
1G
1H
08
#420000
11
0-
1O
0G
0H
18
1h
1a
1_
1[
0R
1P
1L
1D
0?
1`
1\
1Q
1U
1e
1c
1X
#425000
1-
1G
1H
08
1f
1d
1Y
1W
14
15
16
17
#430000
0-
0G
0H
18
#435000
1-
1G
1H
08
#440000
10
01
0-
1K
0O
0G
0H
18
0p
0D
0h
0a
1R
1?
0r
#445000
1-
1G
1H
08
0s
02
#450000
0-
0G
0H
18
#455000
1-
1G
1H
08
#460000
11
0-
1O
0G
0H
18
1j
1h
1a
0_
0R
0L
1D
0@
0?
1k
0`
0U
1l
0e
#465000
1-
1G
1H
08
1m
0f
0W
13
04
07
#470000
0-
0G
0H
18
#475000
1-
1G
1H
08
#480000
0/
00
01
0-
0I
0K
0O
0G
0H
18
1r
0q
0k
1`
0\
0S
0Q
1L
0D
1p
0j
0[
0P
1@
0h
0a
1R
1?
0r
0l
1e
1U
1A
1l
#485000
1-
1G
1H
08
1f
1W
14
17
#490000
0-
0G
0H
18
#495000
1-
1G
1H
08
#500000
11
0-
1O
0G
0H
18
1h
1a
1_
1[
0R
1P
0L
0?
0l
1B
0e
1b
0X
0U
0c
1e
1c
#505000
1-
1G
1H
08
0m
0Y
0W
03
06
07
#510000
0-
0G
0H
18
#515000
1-
1G
1H
08
#520000
10
01
0-
1K
0O
0G
0H
18
0p
1S
1L
1D
0h
0a
1R
1?
1l
0e
0B
1U
1e
0b
0c
#525000
1-
1G
1H
08
1m
0d
1W
13
05
17
#530000
0-
0G
0H
18
#535000
1-
1G
1H
08
#540000
11
0-
1O
0G
0H
18
1q
1j
1h
1a
0_
0R
0@
0?
1r
0A
0l
#545000
1-
1G
1H
08
1s
0m
12
03
#550000
0-
0G
0H
18
#555000
1-
1G
1H
08
#560000
1/
00
01
0-
1I
0K
0O
0G
0H
18
0r
1k
0`
1\
1Q
0L
0D
1p
0j
0[
0P
1@
0h
0a
1R
1?
1l
0e
1c
1X
0U
1r
0k
0\
0Q
0l
0c
0X
#565000
1-
1G
1H
08
0f
0W
04
07
#570000
0-
0G
0H
18
#575000
1-
1G
1H
08
#580000
11
0-
1O
0G
0H
18
1h
1a
1_
1[
0R
1P
1L
1D
0?
1`
1\
1Q
1U
1e
1c
1X
#585000
1-
1G
1H
08
1f
1d
1Y
1W
14
15
16
17
#590000
0-
0G
0H
18
#595000
1-
1G
1H
08
#600000
10
01
0-
1K
0O
0G
0H
18
0p
0D
0h
0a
1R
1?
0r
#605000
1-
1G
1H
08
0s
02
#610000
0-
0G
0H
18
#615000
1-
1G
1H
08
#620000
11
0-
1O
0G
0H
18
1j
1h
1a
0_
0R
0L
1D
0@
0?
1k
0`
0U
1l
0e
#625000
1-
1G
1H
08
1m
0f
0W
13
04
07
#630000
0-
0G
0H
18
#635000
1-
1G
1H
08
#640000
0/
00
01
0-
0I
0K
0O
0G
0H
18
1r
0q
0k
1`
0\
0S
0Q
1L
0D
1p
0j
0[
0P
1@
0h
0a
1R
1?
0r
0l
1e
1U
1A
1l
#645000
1-
1G
1H
08
1f
1W
14
17
#650000
0-
0G
0H
18
#655000
1-
1G
1H
08
#660000
11
0-
1O
0G
0H
18
1h
1a
1_
1[
0R
1P
0L
0?
0l
1B
0e
1b
0X
0U
0c
1e
1c
#665000
1-
1G
1H
08
0m
0Y
0W
03
06
07
#670000
0-
0G
0H
18
#675000
1-
1G
1H
08
#680000
10
01
0-
1K
0O
0G
0H
18
0p
1S
1L
1D
0h
0a
1R
1?
1l
0e
0B
1U
1e
0b
0c
#685000
1-
1G
1H
08
1m
0d
1W
13
05
17
#690000
0-
0G
0H
18
#695000
1-
1G
1H
08
#700000
11
0-
1O
0G
0H
18
1q
1j
1h
1a
0_
0R
0@
0?
1r
0A
0l
#705000
1-
1G
1H
08
1s
0m
12
03
#710000
0-
0G
0H
18
#715000
1-
1G
1H
08
#720000
1/
00
01
0-
1I
0K
0O
0G
0H
18
0r
1k
0`
1\
1Q
0L
0D
1p
0j
0[
0P
1@
0h
0a
1R
1?
1l
0e
1c
1X
0U
1r
0k
0\
0Q
0l
0c
0X
#725000
1-
1G
1H
08
0f
0W
04
07
#730000
0-
0G
0H
18
#735000
1-
1G
1H
08
#740000
11
0-
1O
0G
0H
18
1h
1a
1_
1[
0R
1P
1L
1D
0?
1`
1\
1Q
1U
1e
1c
1X
#745000
1-
1G
1H
08
1f
1d
1Y
1W
14
15
16
17
#750000
0-
0G
0H
18
#755000
1-
1G
1H
08
#760000
10
01
0-
1K
0O
0G
0H
18
0p
0D
0h
0a
1R
1?
0r
#765000
1-
1G
1H
08
0s
02
#770000
0-
0G
0H
18
#775000
1-
1G
1H
08
#780000
11
0-
1O
0G
0H
18
1j
1h
1a
0_
0R
0L
1D
0@
0?
1k
0`
0U
1l
0e
#785000
1-
1G
1H
08
1m
0f
0W
13
04
07
#790000
0-
0G
0H
18
#795000
1-
1G
1H
08
#800000
0/
00
01
0-
0I
0K
0O
0G
0H
18
1r
0q
0k
1`
0\
0S
0Q
1L
0D
1p
0j
0[
0P
1@
0h
0a
1R
1?
0r
0l
1e
1U
1A
1l
#805000
1-
1G
1H
08
1f
1W
14
17
#810000
0-
0G
0H
18
#815000
1-
1G
1H
08
#820000
11
0-
1O
0G
0H
18
1h
1a
1_
1[
0R
1P
0L
0?
0l
1B
0e
1b
0X
0U
0c
1e
1c
#825000
1-
1G
1H
08
0m
0Y
0W
03
06
07
#830000
0-
0G
0H
18
#835000
1-
1G
1H
08
#840000
10
01
0-
1K
0O
0G
0H
18
0p
1S
1L
1D
0h
0a
1R
1?
1l
0e
0B
1U
1e
0b
0c
#845000
1-
1G
1H
08
1m
0d
1W
13
05
17
#850000
0-
0G
0H
18
#855000
1-
1G
1H
08
#860000
11
0-
1O
0G
0H
18
1q
1j
1h
1a
0_
0R
0@
0?
1r
0A
0l
#865000
1-
1G
1H
08
1s
0m
12
03
#870000
0-
0G
0H
18
#875000
1-
1G
1H
08
#880000
1/
00
01
0-
1I
0K
0O
0G
0H
18
0r
1k
0`
1\
1Q
0L
0D
1p
0j
0[
0P
1@
0h
0a
1R
1?
1l
0e
1c
1X
0U
1r
0k
0\
0Q
0l
0c
0X
#885000
1-
1G
1H
08
0f
0W
04
07
#890000
0-
0G
0H
18
#895000
1-
1G
1H
08
#900000
11
0-
1O
0G
0H
18
1h
1a
1_
1[
0R
1P
1L
1D
0?
1`
1\
1Q
1U
1e
1c
1X
#905000
1-
1G
1H
08
1f
1d
1Y
1W
14
15
16
17
#910000
0-
0G
0H
18
#915000
1-
1G
1H
08
#920000
10
01
0-
1K
0O
0G
0H
18
0p
0D
0h
0a
1R
1?
0r
#925000
1-
1G
1H
08
0s
02
#930000
0-
0G
0H
18
#935000
1-
1G
1H
08
#940000
11
0-
1O
0G
0H
18
1j
1h
1a
0_
0R
0L
1D
0@
0?
1k
0`
0U
1l
0e
#945000
1-
1G
1H
08
1m
0f
0W
13
04
07
#950000
0-
0G
0H
18
#955000
1-
1G
1H
08
#960000
0/
00
01
0-
0I
0K
0O
0G
0H
18
1r
0q
0k
1`
0\
0S
0Q
1L
0D
1p
0j
0[
0P
1@
0h
0a
1R
1?
0r
0l
1e
1U
1A
1l
#965000
1-
1G
1H
08
1f
1W
14
17
#970000
0-
0G
0H
18
#975000
1-
1G
1H
08
#980000
11
0-
1O
0G
0H
18
1h
1a
1_
1[
0R
1P
0L
0?
0l
1B
0e
1b
0X
0U
0c
1e
1c
#985000
1-
1G
1H
08
0m
0Y
0W
03
06
07
#990000
0-
0G
0H
18
#995000
1-
1G
1H
08
