Muxes e Decoders/Mux2x1_4Bits/simulation/qsim/Mux2x1_4Bits.msim.vcd
$comment
	File created using the following command:
		vcd file Mux2x1_4Bits.msim.vcd -direction
$end
$date
	Wed May 13 18:30:20 2026
$end
$version
	ModelSim Version 10.1d
$end
$timescale
	1ps
$end
$scope module Mux2x1_4Bits_vlg_vec_tst $end
$var reg 1 ! in0a $end
$var reg 1 " in0b $end
$var reg 1 # in1a $end
$var reg 1 $ in1b $end
$var reg 1 % in2a $end
$var reg 1 & in2b $end
$var reg 1 ' in3a $end
$var reg 1 ( in3b $end
$var reg 1 ) select0 $end
$var wire 1 * display0 $end
$var wire 1 + display1 $end
$var wire 1 , display2 $end
$var wire 1 - display3 $end
$var wire 1 . sampler $end
$scope module i1 $end
$var wire 1 / gnd $end
$var wire 1 0 vcc $end
$var wire 1 1 unknown $end
$var tri1 1 2 devclrn $end
$var tri1 1 3 devpor $end
$var tri1 1 4 devoe $end
$var wire 1 5 select0~combout $end
$var wire 1 6 in0a~combout $end
$var wire 1 7 in0b~combout $end
$var wire 1 8 u1|d~0_combout $end
$var wire 1 9 in1a~combout $end
$var wire 1 : in1b~combout $end
$var wire 1 ; u2|d~0_combout $end
$var wire 1 < in2a~combout $end
$var wire 1 = in2b~combout $end
$var wire 1 > u3|d~0_combout $end
$var wire 1 ? in3a~combout $end
$var wire 1 @ in3b~combout $end
$var wire 1 A u4|d~0_combout $end
$upscope $end
$upscope $end
$enddefinitions $end
#0
$dumpvars
0!
0"
0#
0$
0%
0&
0'
0(
0)
0*
0+
0,
0-
x.
0/
10
x1
12
13
14
05
06
07
08
09
0:
0;
0<
0=
0>
0?
0@
0A
$end
#25000
1"
1$
1&
1(
17
1:
1=
1@
0.
#50000
1!
1#
1%
1'
0"
0$
0&
0(
16
19
1<
1?
07
0:
0=
0@
1.
18
1;
1>
1A
1*
1+
1,
1-
#75000
1"
1$
1&
1(
17
1:
1=
1@
0.
#100000
1)
0!
0#
0%
0'
0"
0$
0&
0(
15
06
09
0<
0?
07
0:
0=
0@
1.
0A
0>
0;
08
0-
0,
0+
0*
#125000
1"
1$
1&
1(
17
1:
1=
1@
0.
18
1;
1>
1A
1*
1+
1,
1-
#150000
1!
1#
1%
1'
0"
0$
0&
0(
16
19
1<
1?
07
0:
0=
0@
1.
08
0;
0>
0A
0*
0+
0,
0-
#175000
1"
1$
1&
1(
17
1:
1=
1@
0.
18
1;
1>
1A
1*
1+
1,
1-
#200000
0)
0!
0#
0%
0'
0"
0$
0&
0(
05
06
09
0<
0?
07
0:
0=
0@
1.
0A
0>
0;
08
0-
0,
0+
0*
#225000
1"
1$
1&
1(
17
1:
1=
1@
0.
#250000
1!
1#
1%
1'
0"
0$
0&
0(
16
19
1<
1?
07
0:
0=
0@
1.
18
1;
1>
1A
1*
1+
1,
1-
#275000
1"
1$
1&
1(
17
1:
1=
1@
0.
#300000
1)
0!
0#
0%
0'
0"
0$
0&
0(
15
06
09
0<
0?
07
0:
0=
0@
1.
0A
0>
0;
08
0-
0,
0+
0*
#325000
1"
1$
1&
1(
17
1:
1=
1@
0.
18
1;
1>
1A
1*
1+
1,
1-
#350000
1!
1#
1%
1'
0"
0$
0&
0(
16
19
1<
1?
07
0:
0=
0@
1.
08
0;
0>
0A
0*
0+
0,
0-
#375000
1"
1$
1&
1(
17
1:
1=
1@
0.
18
1;
1>
1A
1*
1+
1,
1-
#400000
0)
0!
0#
0%
0'
0"
0$
0&
0(
05
06
09
0<
0?
07
0:
0=
0@
1.
0A
0>
0;
08
0-
0,
0+
0*
#425000
1"
1$
1&
1(
17
1:
1=
1@
0.
#450000
1!
1#
1%
1'
0"
0$
0&
0(
16
19
1<
1?
07
0:
0=
0@
1.
18
1;
1>
1A
1*
1+
1,
1-
#475000
1"
1$
1&
1(
17
1:
1=
1@
0.
#500000
1)
0!
0#
0%
0'
0"
0$
0&
0(
15
06
09
0<
0?
07
0:
0=
0@
1.
0A
0>
0;
08
0-
0,
0+
0*
#525000
1"
1$
1&
1(
17
1:
1=
1@
0.
18
1;
1>
1A
1*
1+
1,
1-
#550000
1!
1#
1%
1'
0"
0$
0&
0(
16
19
1<
1?
07
0:
0=
0@
1.
08
0;
0>
0A
0*
0+
0,
0-
#575000
1"
1$
1&
1(
17
1:
1=
1@
0.
18
1;
1>
1A
1*
1+
1,
1-
#600000
0)
0!
0#
0%
0'
0"
0$
0&
0(
05
06
09
0<
0?
07
0:
0=
0@
1.
0A
0>
0;
08
0-
0,
0+
0*
#625000
1"
1$
1&
1(
17
1:
1=
1@
0.
#650000
1!
1#
1%
1'
0"
0$
0&
0(
16
19
1<
1?
07
0:
0=
0@
1.
18
1;
1>
1A
1*
1+
1,
1-
#675000
1"
1$
1&
1(
17
1:
1=
1@
0.
#700000
1)
0!
0#
0%
0'
0"
0$
0&
0(
15
06
09
0<
0?
07
0:
0=
0@
1.
0A
0>
0;
08
0-
0,
0+
0*
#725000
1"
1$
1&
1(
17
1:
1=
1@
0.
18
1;
1>
1A
1*
1+
1,
1-
#750000
1!
1#
1%
1'
0"
0$
0&
0(
16
19
1<
1?
07
0:
0=
0@
1.
08
0;
0>
0A
0*
0+
0,
0-
#775000
1"
1$
1&
1(
17
1:
1=
1@
0.
18
1;
1>
1A
1*
1+
1,
1-
#800000
0)
0!
0#
0%
0'
0"
0$
0&
0(
05
06
09
0<
0?
07
0:
0=
0@
1.
0A
0>
0;
08
0-
0,
0+
0*
#825000
1"
1$
1&
1(
17
1:
1=
1@
0.
#850000
1!
1#
1%
1'
0"
0$
0&
0(
16
19
1<
1?
07
0:
0=
0@
1.
18
1;
1>
1A
1*
1+
1,
1-
#875000
1"
1$
1&
1(
17
1:
1=
1@
0.
#900000
1)
0!
0#
0%
0'
0"
0$
0&
0(
15
06
09
0<
0?
07
0:
0=
0@
1.
0A
0>
0;
08
0-
0,
0+
0*
#925000
1"
1$
1&
1(
17
1:
1=
1@
0.
18
1;
1>
1A
1*
1+
1,
1-
#950000
1!
1#
1%
1'
0"
0$
0&
0(
16
19
1<
1?
07
0:
0=
0@
1.
08
0;
0>
0A
0*
0+
0,
0-
#975000
1"
1$
1&
1(
17
1:
1=
1@
0.
18
1;
1>
1A
1*
1+
1,
1-
